…
``` r
city_summary = homicides |>
  group_by(city_state) |>
  summarize(
    total_homicides = n(),
    unsolved_homicides = sum(disposition %in% c("Open/No arrest", "Closed without arrest")
  )) |>
  arrange(desc(total_homicides))

city_summary
```

    ## # A tibble: 51 × 3
    ##    city_state      total_homicides unsolved_homicides
    ##    <chr>                     <int>              <int>
    ##  1 Chicago,IL                 5535               4073
    ##  2 Philadelphia,PA            3037               1360
    ##  3 Houston,TX                 2942               1493
    ##  4 Baltimore,MD               2827               1825
    ##  5 Detroit,MI                 2519               1482
    ##  6 Los Angeles,CA             2257               1106
    ##  7 St. Louis,MO               1677                905
    ##  8 Dallas,TX                  1567                754
    ##  9 Memphis,TN                 1514                483
    ## 10 New Orleans,LA             1434                930
    ## # ℹ 41 more rows
…
    ## Warning: There was 1 warning in `mutate()`.
    ## ℹ In argument: `prop_test = map2(unsolved_homicides, total_homicides,
    ##   ~prop.test(.x, .y))`.
    ## Caused by warning in `prop.test()`:
    ## ! Chi-squared approximation may be incorrect

``` r
  city_props
```

    ## # A tibble: 51 × 4
    ##    city_state      estimate conf.low conf.high
    ##    <chr>              <dbl>    <dbl>     <dbl>
    ##  1 Chicago,IL         0.736    0.724     0.747
    ##  2 Philadelphia,PA    0.448    0.430     0.466
    ##  3 Houston,TX         0.507    0.489     0.526
    ##  4 Baltimore,MD       0.646    0.628     0.663
    ##  5 Detroit,MI         0.588    0.569     0.608
    ##  6 Los Angeles,CA     0.490    0.469     0.511
    ##  7 St. Louis,MO       0.540    0.515     0.564
    ##  8 Dallas,TX          0.481    0.456     0.506
    ##  9 Memphis,TN         0.319    0.296     0.343
    ## 10 New Orleans,LA     0.649    0.623     0.673
    ## # ℹ 41 more rows
…
